module bitbucket.org/Sanny_Lebedev/heartapi

require (
	cloud.google.com/go v0.34.0 // indirect
	firebase.google.com/go v3.5.0+incompatible
	github.com/ajg/form v0.0.0-20160802194845-cc2954064ec9
	github.com/armon/go-metrics v0.0.0-20180713145231-3c58d8115a78
	github.com/crgimenes/goconfig v0.0.0-20180717215723-c1f2e88fd3b4
	github.com/dgrijalva/jwt-go v0.0.0-20180719211823-0b96aaa70776
	github.com/dimfeld/httppath v0.0.0-20170720192232-ee938bf73598
	github.com/dimfeld/httptreemux v5.0.1+incompatible
	github.com/disintegration/imaging v1.6.0 // indirect
	github.com/go-kit/kit v0.7.0 // indirect
	github.com/go-logfmt/logfmt v0.3.0 // indirect
	github.com/go-stack/stack v1.8.0 // indirect
	github.com/goadesign/goa v1.4.0
	github.com/gogo/protobuf v1.1.1 // indirect
	github.com/googleapis/gax-go v2.0.2+incompatible // indirect
	github.com/hashicorp/go-immutable-radix v0.0.0-20180129170900-7f3cd4390caa
	github.com/hashicorp/golang-lru v0.0.0-20180201235237-0fb14efe8c47
	github.com/inconshreveable/log15 v0.0.0-20180818164646-67afb5ed74ec // indirect
	github.com/inconshreveable/mousetrap v1.0.0
	github.com/jackc/pgx v3.2.0+incompatible
	github.com/lib/pq v1.0.0
	github.com/manveru/faker v0.0.0-20171103152722-9fbc68a78c4d
	github.com/mattn/go-colorable v0.0.9 // indirect
	github.com/mattn/go-isatty v0.0.4 // indirect
	github.com/nfnt/resize v0.0.0-20180221191011-83c6a9932646
	github.com/nuveo/log v0.0.0-20180612162145-f88607104ac8
	github.com/pkg/errors v0.8.0
	github.com/rs/zerolog v0.0.0-20180726225302-71e1f5e052d0
	github.com/satori/go.uuid v0.0.0-20180103174451-36e9d2ebbde5
	github.com/sideshow/apns2 v0.0.0-20181014012405-060d44b53d05
	github.com/sirupsen/logrus v1.0.6 // indirect
	github.com/spf13/cobra v0.0.0-20180722215644-7c4570c3ebeb
	github.com/spf13/pflag v1.0.2
	github.com/ugorji/go/codec v0.0.0-20180920200043-2c86ab75771c // indirect
	github.com/zach-klippenstein/goregen v0.0.0-20160303162051-795b5e3961ea
	go.opencensus.io v0.18.0 // indirect
	goa.design/plugins v0.0.0-20181206214347-0641a9b7482c
	golang.org/x/crypto v0.0.0-20180808211826-de0752318171
	golang.org/x/net v0.0.0-20180906233101-161cd47e91fd
	golang.org/x/oauth2 v0.0.0-20181203162652-d668ce993890 // indirect
	golang.org/x/sys v0.0.0-20180909124046-d0be0721c37e
	golang.org/x/tools v0.0.0-20180917221912-90fa682c2a6e // indirect
	google.golang.org/api v0.0.0-20181221000618-65a46cafb132
	google.golang.org/grpc v1.17.0 // indirect
)
